Exercise_7/simulation/qsim/Exercise7.msim.vcd
$comment
	File created using the following command:
		vcd file Exercise7.msim.vcd -direction
$end
$date
	Tue May 10 11:46:21 2022
$end
$version
	ModelSim Version 10.1d
$end
$timescale
	1ps
$end
$scope module meemoo_tester_vlg_vec_tst $end
$var reg 2 ! KEY [1:0] $end
$var reg 2 " SW [1:0] $end
$var wire 1 # LEDR [1] $end
$var wire 1 $ LEDR [0] $end
$var wire 1 % sampler $end
$scope module i1 $end
$var wire 1 & gnd $end
$var wire 1 ' vcc $end
$var wire 1 ( unknown $end
$var tri1 1 ) devclrn $end
$var tri1 1 * devpor $end
$var tri1 1 + devoe $end
$var wire 1 , tst|present_state~6_combout $end
$var wire 1 - tst|present_state~7_combout $end
$var wire 1 . tst|present_state.init~regout $end
$var wire 1 / tst|present_state~8_combout $end
$var wire 1 0 tst|present_state.active~regout $end
$var wire 1 1 tst|present_state~5_combout $end
$var wire 1 2 tst|present_state.idle~regout $end
$var wire 1 3 tst|mee_out~0_combout $end
$var wire 1 4 SW~combout [1] $end
$var wire 1 5 SW~combout [0] $end
$var wire 1 6 KEY~combout [1] $end
$var wire 1 7 KEY~combout [0] $end
$upscope $end
$upscope $end
$enddefinitions $end
#0
$dumpvars
b1 !
b1 "
0$
0#
x%
0&
1'
x(
1)
1*
1+
0,
0-
0.
0/
00
01
02
03
15
04
17
06
$end
#5000
b11 !
16
0%
#10000
b0 "
b1 !
06
05
1%
#15000
b11 !
16
0%
#20000
b10 "
b11 "
b1 !
06
15
14
1%
#30000
b1 "
b0 "
05
04
0%
#40000
b11 !
b1 "
15
16
1%
#45000
b1 !
06
0%
#50000
b0 "
05
1%
#55000
b11 !
16
0%
#75000
b1 !
06
1%
#80000
b11 !
16
0%
#95000
b1 !
06
1%
#100000
b11 !
16
0%
#115000
b1 !
06
1%
#120000
b11 !
16
0%
#140000
b1 !
06
1%
#150000
b11 !
16
0%
#155000
b1 !
06
1%
#165000
b11 !
16
0%
#170000
b1 !
06
1%
#180000
b11 !
16
0%
#185000
b1 !
06
1%
#210000
b11 !
16
0%
#215000
b1 !
06
1%
#220000
b11 !
16
0%
#225000
b1 !
06
1%
#230000
b11 !
16
0%
#235000
b1 !
06
1%
#240000
b11 !
16
0%
#250000
b1 !
06
1%
#260000
b11 !
16
0%
#270000
b1 !
06
1%
#275000
b11 !
16
0%
#280000
b1 !
06
1%
#290000
b11 !
16
0%
#310000
b1 !
06
1%
#315000
b11 !
16
0%
#320000
b1 !
06
1%
#330000
b11 !
16
0%
#335000
b1 !
06
1%
#345000
b11 !
16
0%
#355000
b1 !
06
1%
#360000
b11 !
16
0%
#365000
b1 !
06
1%
#375000
b11 !
16
0%
#380000
b1 !
06
1%
#385000
b11 !
16
0%
#390000
b1 !
06
1%
#395000
b11 !
16
0%
#400000
b1 !
06
1%
#405000
b11 !
16
0%
#435000
b1 !
06
1%
#445000
b11 !
16
0%
#450000
b1 !
06
1%
#465000
b11 !
16
0%
#470000
b1 !
06
1%
#475000
b11 !
16
0%
#480000
b1 !
06
1%
#485000
b11 !
16
0%
#495000
b1 !
06
1%
#500000
b11 !
16
0%
#505000
b1 !
06
1%
#535000
b11 !
16
0%
#550000
b1 !
06
1%
#565000
b11 !
16
0%
#575000
b1 !
06
1%
#585000
b11 !
16
0%
#590000
b1 !
06
1%
#595000
b11 !
16
0%
#605000
b1 !
06
1%
#615000
b11 !
16
0%
#630000
b1 !
06
1%
#645000
b11 !
16
0%
#650000
b1 !
06
1%
#660000
b11 !
16
0%
#680000
b1 !
06
1%
#685000
b11 !
16
0%
#695000
b1 !
06
1%
#700000
b11 !
16
0%
#705000
b1 !
06
1%
#710000
b11 !
16
0%
#720000
b1 !
06
1%
#735000
b11 !
16
0%
#760000
b1 !
06
1%
#780000
b11 !
16
0%
#785000
b1 !
06
1%
#795000
b11 !
16
0%
#815000
b1 !
06
1%
#825000
b11 !
16
0%
#860000
b1 !
06
1%
#865000
b11 !
16
0%
#880000
b1 !
06
1%
#900000
b11 !
16
0%
#905000
b1 !
06
1%
#910000
b11 !
16
0%
#920000
b1 !
06
1%
#930000
b11 !
16
0%
#935000
b1 !
06
1%
#945000
b11 !
16
0%
#955000
b1 !
06
1%
#965000
b11 !
16
0%
#975000
b1 !
06
1%
#985000
b11 !
16
0%
#990000
b1 !
06
1%
